A1 TV SERVICES,123 CONISTON ROAD,,EDINBURGH,,EH10 6AQ,0131 452 9693,,a1tvs@aol.com,RONNIE REYNOLDS,,,,,
ANCRUM,28 TANNADICE STREET,,DUNDEE,,DD3 7QP,01382 454511,,ancrum.service@virgin.net,DAVE URQUHART,,,,,
AUDIO VIDEO SERVICE,CUMBERLAND HOUSE,CUMBERLAND ROAD,NORTH SHIELDS,TYNE AND WEAR,NE29 8RD,0191 209 2799,,calls@audiovideoservice.co.uk,PAUL DAVIS,901 3269 57,AUD01,AVSN,calls@audiovideoservice.co.uk,AVS NEWCASTLE LTD
AUDIOVISION,AVENUE ROAD,FRESHWATER,ISLE OF WIGHT,ISLE OF WIGHT,PO40 9UT,01983 752023,,audiovision@iwavs.co.uk,MARK WHITE,,,,,
AV Service Centre,14 Father Matthew Quay,,Cork,Cork,,353 874161259,,avsc@eircom.net,Donal Riordan,,,,,
BABBER ELECTRONICS SERVICE CENTRE,"UNIT 7, WATERSIDE TRADING CENTRE",TRUMPERS WAY,HANWELL,,W7 2QD,020 8893 6550,,service@babber.com,SATISH BABBER,,,,,
BENNETT AUDIO VIDEO SERVICES LTD,UNIT 55/1,BLOCK 503 GREENNOGUE BUSINESS PARK,RATHCOOLE,CO DUBLIN,,353 872716716,,bavs@live.ie,NOEL BENNETT,,,,,
BIRMINGHAM SPECIALISED SERVICES,UNIT 3,"ACE BUSINESS PARK, MACKADOWN LANE",BIRMINGHAM,WEST MIDLANDS,B33 0LD,0121 789 9991,,info@bss-online.co.uk,STEVE COLLETT,,,,,
BUDGET TV,UNIT B EARLSTON INDUSTRIAL ESTATE,STATION ROAD,EARLSTON,BORDERS,TD4 6BZ,01896 848960,,kevin@budgettvcentre.co.uk,IAN STEWART,,,,,
CAMTRONICS,UNIT 6 CAMPUS 5,,,LETCHWORTH,SG6 2JF,01462 485947,,service@camtronics.co.uk,NIGEL PUSEY / SEAN BAKER,,,,,
Cannan & Brown,Unit 2 Hawswater Road,Penrith Industrial Estate,Penrith. Carlisle,Cumbria,CA119EH,01768 864829,,cannanbrown@nesn50.freeserve.co.uk,Andrew Cannan,,,,,
COLOURVISION COLOURTRONICS LTD,123-125 LEY STREET,,ILFORD,ESSEX,IG1 4BH,020 8478 8580,020 8514 7318,,RUPESH SHAH,,,,,
CORNWALL TV,THE WILSON BUILDING,WILSON WAY,REDRUTH,CORNWALL,TR15 3RU,01209 807592,,,JOHN DARK,,,,,
CORRECT TV,242 OAKDALE ROAD,CARLTON,NOTTINGHAM,NOTTINGHAMSHIRE,NG4 1AD,01159 563434,,office@correctserviceltd.co.uk,JOE GREEN,,,,,
CRAIGAVON TV,17 LOGAN DRIVE,LURGAN,CRAIGAVON,N. IRELAND,BT66 8DA,02838 326119,,enquiries@craigavon.tv,ROGER PATTERSON,,,,,
D & J HENRY LTD,"UNIT 3B, QUINN CLOSE",SEVEN STARS INDUSTRIAL ESTATE,COVENTRY,WEST MIDLANDS,CV3 4LH,024 7688 6800,,enquiries@djhenry.co.uk,ROB ROBINSON,478 4568 88,D&J01,DJHENRY,accounts@djhenry.co.uk,D &  J HENRY LTD  S & S
D K AUDIO VISUAL SERVICES HORLEY,17 GATWICK METRO CENTRE,BALCOMBE ROAD,HORLEY,,RH6 9GA,0208 687 8850,,horleytech@dkavs.co.uk,STEVE BARNETT,,DK02,,,DK Audio Visual Services
D K AUDIO VISUAL SERVICES MITCHAM,189-191 LONDON ROAD,MITCHAM,MITCHAM,SURREY,CR4 2JB,0208 687 8888,,sony.support@dkavs.co.uk,JIM LANE,,,,,
DBS Service Centre (Newcastle),Noble Street Industrial Estates,Georges Road,Newcastle-Upon-Tyne,Tyne and Wear,NE4 7NQ,0191 226 0446,,enquiries@dbsnewcastle.co.uk,Joanne Ditchburn,789 5267 60,DBS01,DBS01,enquiries@dbsnewcastle.co.uk,DBS SERVICE CENTRE (NEWCASTLE)
DBS YORK,"UNIT 2, STIRLING PARK",AMY JOHNSON WAY,CLIFTON MOOR,YORK,YO3 4WP,01904 692266,,service@dbsyork.co.uk,DON  SMITH,,,,,
DSC,"UNIT 6-7, TELFORD COURT",9 SOUTH AVENUE,CLYDEBANK BUSINESS PARK,GLASGOW,G81 2NR,0141 941 3711,,dscsolutions125@yahoo.co.uk,COLIN KYLE,,,,,
DUNCANS TV,,11 CARSEGATE ROAD,INVERNESS,HIGHLAND,IV3 8EX,01463 712151,,duncan.maclaren@btconnect.com,DUNCAN MACLAREN,,,,,
Electronic Services,1A Europa Way,Fforestfach,Swansea,Wales,SA5 4AJ,01792 561511,,enquiries@electronic-services.co.uk,Phil Hardman,692 5896 86,ELEC01,ELEC01,enquiries@electronic-services.co.uk,ELECTRONIC SERVICES (WALES) LTD
FORTH ELECTRONIC SERVICES LTD,113,OAKLAND ROAD,HANWELL,LONDON,W7 2DT,020 8840 4455,,mail@forth-electronics.com,SHELLEY JHAJ,649 6881 73,FORTH,FORTH,mail@forth-electronics.com,FORTH ELECTRONIC SERVICES LTD
GENSERVE,UNIT 11 CAEN VIEW,RUSHY PLATT,SWINDON,WILTSHIRE,SN5 8WQ,01793 886333,,info@genserve.co.uk,RICHARD SACKS,855 4312 26,GEN01,GEN,info@genserve.co.uk,GENSERVE
GOGGLEBOX TV,"UNIT 6, LYNWOOD COURT",CATER ROAD,BISHOPSWORTH,BRISTOL,BS13 7TT,01179 358989,01179 358747,,,,,,,
GWYNNE TV,"16-20, BENFIELD WAY",,,BRAINTREE,CM7 3YS,0845 6340293,,info@gwynne-tv.co.uk,MICHAEL FREEMAN,,,,,
H & H VIDEO,UNIT 4 PORTSIDE INDUSTRIAL PARL,PORTSIDE NORTH,ELLESMERE PORT,CHESHIRE,CH65 2HQ,0151 357 1011,,service@hhvideo.co.uk,ROB HINDMOOR OR MARK DEPANEO,,,,,
HEREFORD SERVICE CENTRE,"UNIT 8, AYDON INDUSTRIAL PARK",HOLMER ROAD,HEREFORD,HEREFORDSHIRE,HR4 9UN,01432 265295,,herefordservicecentre@hutchinsons.com,,,,,,
Hitech,,Beaumont Close,Banbury,Oxfordshire,OX16 7TN,01295 267415,,hitechdigital@btconnect.com,Tom Wilson,,HIT01,HITECH,hitechdigital@btconnect.com,HITECH
HYDE PARK CORNER,61-63 DOWSON ROAD,,HYDE,CHESHIRE,SK14 1QS,0161 3686999,,enquiries@hydeparkcorner.net,SHAUN MCENTEE,,,HYDE01,shaun@hydeparkcorner.net,HYDE PARK CORNER
ICTV FARNBOROUGH,"UNIT 3, KINGSGROVE INDUSTRIAL ESTATE",,INVINCIBLE ROAD,FARNBOROUGH,GU14 7SS,01252 514371,,ictvuk@btconnect.com,KEN HOOPER,,,,,
ICTV SOUTHERN,UNIT 16 FAIRWAY BUSINESS CTRE,AIRPORT SERVICE ROAD,PORTSMOUTH,HAMPSHIRE,PO3 5NU,02392 653654,,ictv@btconnect.com,GRAHAM STENT,,,,,
INTEGRATED SERVICES,10-11 Henson Close,Telford Way Industrial Estate,KETTERING,,NN16 8PZ,01536 516475,,dwjhope@btconnect.com,David Hope,,,,,
JF ASSOCIATES,"UNIT 7, THE BOUNDARY",WHEATLEY ROAD,GARSINGTON,OXFORDSHIRE,OX44 9EJ,01865 361660,,info@jfa.org.uk,JIM FOREST,,,,,
Keens Service Limited,Canalside,North Bridge Road,Berkhamsted,Hertfordshire,HP4 1EG,01442 864445,,info@keenserve.co.uk,Kevin Evans,538 1399 23,KEE01,KEENS,info@keenserve.co.uk,KEENS SERVICE LTD
KELTEC,Keltec House,Rocky Valley Road,Kilmacanogue,Co Wicklow,,01 286 3437,,keltec@indigo.ie,,,,,,
LAWLESS BROTHERS,UNIT 7. KINSEALY BUSINESS PK,MALAHIDE,CO. DUBLIN,DUBLIN,,35318456986,,lawlessbros@eircom.net,JOHN LAWLESS,,,,,
MARTIN DAWES WINSFORD,ROAD FOUR,WINSFORD INDUSTRIAL ESTATE,WINSFORD,CHESHIRE,CW7 3QN,01606 869648,,brandxoffice@martindawes.com,,,Mar-01,MARTIN,stevejepson@martindawes.com,MARTIN DAWES
MCMICHAEL BROS,UNIT 6,10 MUNRO ROAD,STIRLING,,FK7 7UU,01786 479574,,service@mcmichaels.co.uk,ARCHIE FORD,,,,,
MF SERVICES,26 Doughcloyne Court,Doughcloyne Industrial Estate,Sarsfield Road,Cork,,021 434 8993,,mfservices@eircom.net,,,,,,
MTV SERVICE,WESTMINSTER INDUSTRIAL ESTATE,"WESTMINSTER ROAD,",LINCOLN,LINCOLNSHIRE,LN6 3QY,08702 400938,,enquiry@mtvservice.co.uk,MAX BAKER,,,,,
MWES,2E COWM BUSINESS PARK,COWM TOP LANE,ROCHDALE,LANCS,OL11 2PU,0161 678 8388,,sony@mwes.co.uk,MIKE WOOD,,,,,
NORTH WEST APPLIANCE REPAIRS,GROUND FLOOR,UNIT 5. ARKWRIGHT COURT,BLACKPOOL,LANCASHIRE,FY4 5DR,01253 792289,,workshop@nwar.uk.net,ANDY EFSTATHIOU,,NWAR01,NWAR,,NWAR
NORTHERN TRADERS,"UNIT 4, CHARTISTS WAY",MORLEY,LEEDS,YORKSHIRE,LS27 9ET,01132 383280,,service_nts2003@yahoo.co.uk,SIMON BEDFORD,,,,,
OCONNORS SERVICE CENTRE,26 Mulvoy Park,Mulvoy road,Galway,Galway,,353 91 778 000,,info@osservice.ie,Ronan OConnor,,,,,
PENCOED SERVICE CENTRE,,PENCOED TECHNOLOGY PARK,PENCOED,MID GLAMORGAN,CF35 5HZ,01656 867020,,tic.pencoed@eu.sony.com,PHIL CLARKE,,,,,
PETER JONES ELECTRICAL,,GILFACH MANAFON,WELSHPOOL,POWYS,SY21 8VP,01686 650427,,peter.1.jones@btconnect.com,PETER JONES,,,,,
Peterborough Video Services,Mayfield House,Papayrus Road. Werrington,Peterborough,Cambridgeshire,PE4 5BH,01733 328888,,info@pvsltd.co.uk,Martin Dunnett,,PET01,PET01,martin@pvsltd,PETERBOROUGH VIDEO SERVICES
REPAIR GUYS,THE REPAIR CENTRE,4 GRACE ROAD (SOUTH) MARSH BARTON,EXETER,DEVON,EX2 8QE,0871 2006625,01392 891100,steve@repairguys.co.uk,STEVE PEARSON,803 6796 15,APP01,APP01,sp@appliancecare.tv,APPLIANCE CARE LTD
RETEL,36 HETHER DRIVE,LOWRY HILL,CARLISLE,CUMBRIA,CA3 OES,01228 525399,,retel.servicing29@btconnect.com,ALF BEARD,,RETEL,RETEL,retel@servicing29.freeserve.co.uk,RETEL
SANDS TV SERVICES LTD,UNIT E5-E6 ABBEY FARM COMMERCIAL PARK,SOUTHWELL ROAD,NORWICH,NORFOLK,NR10 3JU,01603 897241,,service@sandstv.co.uk,STUART HALL,426 1911 66,SAN01,SANDS,service@sands.co.uk,SANDS TV SERVICES LTD
SERVICECARE SUPPORT SERVICES LTD,MANCHESTER ROAD,HOLLINWOOD,OLDHAM,,OL9 7AA,0161 688 1999,,noise@servicecare.co.uk,GARY FURNESS,732 4190 54,SER01,SER01,g.furness@servicecare.co.uk,SERVICECARE
Sontec (Electronics) Ltd,Sontec House,Concorde Road,Norwich,Norfolk,NR6 6BE,01603 483675,,david.thompson@sontec.co.uk,David Thompson,,,,,
SOUND AND VISION,BALIFFS CROSS,,ST. ANDREW,GUERNSEY,GY6 8TU,01481 237999,01481 713045,,ANDY BEST,,,,,
SOUTH ESK ELECTRONICS,,70 MONTROSE STREET,BRECHIN,,DD9 7BZ,01356 626969,,southesk.electronics@virgin.net,GEORGE ALLARDICE,,,,,
Startec,297,Seaside,Eastbourne,Sussex,BN22 7NU,01323 412012,,info@startec.tv,Paul Staron,624 9787 94,STAR01,STAR,info@startec.tv,STARTEC SERVICES
SVS POOLE,"UNIT 14, STANLEY GREEN CRESCENT IND EST",,,POOLE,BH15 3TH,01202 686676,,svs-booking@btconnect.com,GARTH WILLIAMS,,,,,
T.V.A.E.,7B Airways Technology Park,Ballygarvan,Cork,,,021 484 9160,,tvae@iol.ie,,,,,,
TELEFAULTS,,ST. MICHAELS ROAD,STOKE-ON-TRENT,STAFFORDSHIRE,ST6 6LG,01782 813757,,service@telefaults.com,CRAIG HOLDCROFT / JARROD BURNDRED,,,,,
TELERADIO EXPERT SERVICE,UNIT 48 THOMAS WAY,LAKESVIEW INTERNATIONAL BUSINESS PA,CANTERBURY,KENT,CT3 4JJ,01227 710001,,enquiries@teleradioexpertservice.co.uk,GRANT PALMER,,,,,
TVRS,UNIT 52 SOUTH AVENUE,HIGH BLANTYRE IND ESTATE,BLANTYRE,STRATHCLYDE,G72 OUZ,01698 327700,,invoicing@tvrs-uk.com,RALPH ROSS,,,,,
ULTRATEC,UNIT 2,"RICHMOND ROAD, LLANION PARK",PEMBROKE DOCK,WALES,SA72 6TZ,0844 8001914,,admin@ultratec.org,JON PHILIPS,,,,,
VISUAL FX SERVICE CENTRE,"UNIT 1, GATEWAY 25",WESTON AVENUE,THURROCK,ESSEX,RM20 3ZD,01708 395040,,info@visualfx-limited.co.uk,GARRY HALL,,,,,
Visual Service Centre (Derby),Unit 1,Derby Trading Estate. Stores Road,Derby,Derbyshire,DE21 4BE,01332 291119,,info@visualservicecentre.co.uk,Paul Garford,,VIS02,VSC01,info@visualservicecentre.co.uk,VISUAL SERVICE CENTRE ( VSC)
Visual Service Centre (Manchester),140,Princess Road,Manchester,Lancashire,M16 7BY,0161 232 1615,,info@visualservicecentre.co.uk,Paul Garford,,VIS03,VSC02,info@visualservicecentre.co.uk,VISUAL SERVICE CENTRE - Manchester
YORKSHIRE MULTIMEDIA SERVICE,SPENCER BUSINESS CENTRE,FACTORY STREET. DUDLEY HILL,BRADFORD,YORKSHIRE,BD4 9NW,01274 688877,,y.mms@hotmail.co.uk,GUL BOSTAN / IBI BOSTAN,,YORK01,YORK01,y.mms@hotmail.co.uk,YORKSHIRE MULTIMEDIA SERVICE
MASTERFIX,TRANSITION HOUSE,"UNIT 15, IRELAND CLOSE",STAVELEY,CHESTERFIELD,S43 3PE,01246 840000,,service@masterfix.co.uk,DAVID WILD,,,,,
